{
	"id": "edc2ac85-c3b1-4adb-b876-d9afb6e10dc6",
	"name": "ana-service",
	"values": [
		{
			"key": "env",
			"value": "localhost:8080",
			"enabled": true
		},
		{
			"key": "access_token",
			"value": "Bearer eyJhbGciOiJIUzI1NiIsInR5cCI6IkpXVCJ9.eyJleHAiOjE1OTQ0NzYxNjUsInVzZXJfbmFtZSI6Ijk5LjAwMDUiLCJhdXRob3JpdGllcyI6WyJST0xFX0FETUlOIl0sImp0aSI6ImJhY2VhOGQ0LTkzNGMtNDIwMS1hMDVkLTNkMWI2MzUzZGYyMiIsImNsaWVudF9pZCI6ImFuYS1jbGllbnQiLCJzY29wZSI6WyJyZWFkIiwid3JpdGUiLCJ0cnVzdCJdfQ.O9TiubOaXiCWLZtJW-RlAXns49SQQLH1BIKGyVlOPb0",
			"enabled": true
		}
	],
	"_postman_variable_scope": "environment",
	"_postman_exported_at": "2020-07-11T13:06:43.662Z",
	"_postman_exported_using": "Postman/7.28.0-canary01"
}